{
    "uchars": [
        "numberOfInnermostPixelLayerHits",
        "numberOfNextToInnermostPixelLayerHits",
        "numberOfInnermostPixelLayerSharedHits",
        "numberOfInnermostPixelLayerSplitHits",
        "numberOfPixelHits",
        "numberOfPixelSharedHits",
        "numberOfPixelSplitHits",
        "numberOfSCTHits",
        "numberOfSCTSharedHits"
    ],
    "floats": [
        "qOverP"
    ],
    "customs": [
        "pt",
        "ptfrac",
        "deta",
        "z0RelativeToBeamspot",
        "qOverPUncertainty"
    ],
    "half_precision_customs": [
        "d0",
        "z0SinTheta",
        "d0Uncertainty",
        "z0SinThetaUncertainty",
        "phiUncertainty",
        "thetaUncertainty",
        "dphi",
        "z0RelativeToBeamspotUncertainty",
        "IP3D_signed_d0",
        "IP3D_signed_z0",
        "IP3D_signed_d0_significance",
        "IP3D_signed_z0_significance"
    ]
}
